[
  { "src": "url", "match": "start", "filter": "file://" },
  { "src": "url", "match": "start", "filter": "http://localhost" },
  { "src": "url", "match": "exact", "filter": "https://forecast7.com/sk/48d7218d26/banovce-nad-bebravou/" },
  { "src": "origin", "match": "end", "filter": "wikipedia.org" },
  { "src": "origin", "match": "end", "filter": "matura.sk" },
  { "src": "origin", "match": "end", "filter": "minedu.sk" },
  { "src": "origin", "match": "end", "filter": "portalvs.sk" },
  { "src": "origin", "match": "end", "filter": "nucem.sk" },
  { "src": "origin", "match": "exact", "filter": "https://spsbn.edupage.org" },
  { "src": "origin", "match": "exact", "filter": "https://cp.hnonline.sk" },
  { "src": "origin", "match": "exact", "filter": "https://secure.ulrichsw.cz" },
  { "src": "origin", "match": "exact", "filter": "https://maps.google.com" },
  { "src": "origin", "match": "exact", "filter": "https://oskole.detiamy.sk" },
  { "src": "origin", "match": "end", "filter": "youtube.com", "and":  {
    "src": "url", "match": "contains", "filter": "0ZwH0R2lGX4"
  }}
]